<svg xmlns="http://www.w3.org/2000/svg" xmlns:xlink="http://www.w3.org/1999/xlink" width="0" height="0" style="position:absolute">
	
		<symbol id="ico-aizpildi-pieteikumu" viewBox="0 0 64 64">
			<path d="M37.293 12.293l-.707.707.707-.707zm9.414 9.414l.707-.707-.707.707zM46 51H18v2h28v-2zm-28 0V13h-2v38h2zm0-38h18.586v-2H18v2zm18.586 0L46 22.414 47.414 21 38 11.586 36.586 13zM48 22.414A2 2 0 0 0 47.414 21L46 22.414h2zM36.586 13L38 11.586A2 2 0 0 0 36.586 11v2zM18 51h-2a2 2 0 0 0 2 2v-2zm28 2a2 2 0 0 0 2-2h-2v2zM18 13v-2a2 2 0 0 0-2 2h2zm28 9.414V28h2v-5.586h-2zM46 33.5V51h2V33.5h-2z" fill="#fff"></path><path d="M37 12v9a1 1 0 0 0 1 1h9" stroke="#fff" stroke-width="2"></path><path d="M25 28h14M25 33h14M25 38h12M25 43h7" stroke="#fff" stroke-width="2" stroke-linecap="round"></path><path d="M35.808 42.192l-.981-.196-.294 1.471 1.47-.294-.195-.98zm3.75-.92l.706.706-.707-.707zm-.512.273l.196.98-.196-.98zM54.9 24.515l-.708.707.708-.707zm0 1.414l-.708-.707.708.707zM52.07 23.1l.707.707-.707-.707zm1.414 0l.707-.708-.707.707zM36.73 38.443l-.707-.707.707.707zm-.274.51l.98.197-.98-.196zm.98.197l15.343-15.342-1.414-1.415-15.342 15.343 1.414 1.414zm15.343-15.342l1.414 1.414 1.415-1.414-1.415-1.415-1.414 1.415zm1.414 1.414L38.85 40.564l1.414 1.414 15.343-15.342-1.415-1.414zM38.85 40.564l-3.239.648.393 1.961 3.238-.648-.392-1.96zm-2.062 1.825l.648-3.24-1.961-.391-.648 3.238 1.961.392zm2.062-1.825l.392 1.961a2 2 0 0 0 1.022-.547l-1.414-1.414zm15.342-15.342l1.415 1.414a2 2 0 0 0 0-2.828l-1.415 1.414zm-1.414-1.414l1.414-1.415a2 2 0 0 0-2.828 0l1.414 1.415zM36.022 37.736a2 2 0 0 0-.547 1.022l1.96.392-1.413-1.414z" fill="#fff"></path><path d="M49.95 25.222l2.828 2.828" stroke="#fff" stroke-width="2"></path>
		</symbol>
	
		<symbol id="ico-calendar" viewBox="0 0 48 48">
			<circle opacity=".2" cx="24" cy="24" r="23.5" stroke="#0B597A"></circle><path d="M13 16a1 1 0 0 1 1-1h20a1 1 0 0 1 1 1v18a1 1 0 0 1-1 1H14a1 1 0 0 1-1-1V16z" stroke="#0B597A" stroke-width="2"></path><rect x="17" y="10" width="2" height="6" rx="1" fill="#0B597A"></rect><rect x="29" y="10" width="2" height="6" rx="1" fill="#0B597A"></rect><rect x="17" y="25" width="2" height="2" rx="1" fill="#0B597A"></rect><rect x="21" y="25" width="2" height="2" rx="1" fill="#0B597A"></rect><rect x="25" y="25" width="2" height="2" rx="1" fill="#0B597A"></rect><rect x="29" y="25" width="2" height="2" rx="1" fill="#0B597A"></rect><rect x="17" y="29" width="2" height="2" rx="1" fill="#0B597A"></rect><rect x="21" y="29" width="2" height="2" rx="1" fill="#0B597A"></rect><rect x="25" y="29" width="2" height="2" rx="1" fill="#0B597A"></rect><path fill="#0B597A" d="M12 20h24v2H12z"></path>
		</symbol>
	
		<symbol id="ico-card" viewBox="0 0 48 48">
			<circle opacity=".2" cx="24" cy="24" r="23.5" stroke="#0B597A"></circle><rect x="13" y="15" width="22" height="18" rx="1" stroke="#0B597A" stroke-width="2"></rect><path fill="#0B597A" d="M13 27h22v2H13z"></path><rect x="17" y="19" width="4" height="3" rx="1" fill="#0B597A"></rect>
		</symbol>
	
		<symbol id="ico-doc" viewBox="0 0 44 44">
			<circle cx="22" cy="22" r="22" fill="#fff"></circle><path d="M19 8a1 1 0 1 0 0 2h6a1 1 0 1 0 0-2h-6z" fill="#299191"></path><path fill-rule="evenodd" clip-rule="evenodd" d="M13 14a2 2 0 0 1 2-2h14a2 2 0 0 1 2 2v18a2 2 0 0 1-2 2H15a2 2 0 0 1-2-2V14zm4 5a1 1 0 0 1 1-1h8a1 1 0 0 1 0 2h-8a1 1 0 0 1-1-1zm1 3a1 1 0 0 0 0 2h8a1 1 0 0 0 0-2h-8zm-1 5a1 1 0 0 1 1-1h4a1 1 0 0 1 0 2h-4a1 1 0 0 1-1-1z" fill="#299191"></path>
		</symbol>
	
		<symbol id="ico-info" viewBox="0 0 22 22">
			<circle cx="11" cy="11" r="11" fill="#C5C5C5"></circle><path d="M9.938 16h1.89V9.07h-1.89V16zm-.266-9.45c0 .658.532 1.162 1.204 1.162.672 0 1.218-.504 1.218-1.162 0-.672-.546-1.176-1.218-1.176-.672 0-1.204.504-1.204 1.176z" fill="#fff"></path>
		</symbol>
	
		<symbol id="ico-next" viewBox="0 0 16 16">
			<path d="M11 8l.707-.707.707.707-.707.707L11 8zm-5.707 4.293l5-5 1.414 1.414-5 5-1.414-1.414zm5-3.586l-5-5 1.414-1.414 5 5-1.414 1.414z" fill="#fff"></path>
		</symbol>
	
		<symbol id="ico-nolink" viewBox="0 0 44 44">
			<circle cx="22" cy="22" r="22" fill="#fff"></circle><path d="M17.464 11.393a1 1 0 0 1 2 0v2.829a1 1 0 0 1-2 0v-2.829zM25.182 15.282a2.5 2.5 0 0 1 3.535 3.536l-2.828 2.828a1.5 1.5 0 1 0 2.121 2.122l2.829-2.829a5.5 5.5 0 1 0-7.778-7.778l-2.829 2.829a1.5 1.5 0 1 0 2.121 2.12l2.829-2.828zM15.283 25.182a2.5 2.5 0 1 0 3.535 3.536l2.828-2.829a1.5 1.5 0 1 1 2.122 2.121l-2.829 2.829a5.5 5.5 0 1 1-7.778-7.778l2.829-2.829a1.5 1.5 0 0 1 2.121 2.122l-2.829 2.828zM33.606 25.535a1 1 0 0 1-1 1h-2.828a1 1 0 1 1 0-2h2.828a1 1 0 0 1 1 1zM26.535 32.607a1 1 0 0 1-2 0v-2.829a1 1 0 1 1 2 0v2.829zM28.364 28.364a1 1 0 0 1 1.414 0l1.414 1.414a1 1 0 0 1-1.414 1.414l-1.414-1.414a1 1 0 0 1 0-1.414zM10.393 18.465a1 1 0 0 1 1-1h2.829a1 1 0 1 1 0 2h-2.829a1 1 0 0 1-1-1zM15.636 14.222a1 1 0 0 1-1.414 1.414l-1.414-1.414a1 1 0 0 1 1.414-1.414l1.414 1.414z" fill="#299191"></path>
		</symbol>
	
		<symbol id="ico-percent" viewBox="0 0 48 48">
			<circle opacity=".2" cx="24" cy="24" r="23.5" stroke="#0B597A"></circle><path d="M18.636 22.996c2.595 0 4.494-1.953 4.494-4.484C23.13 15.953 21.2 14 18.54 14 15.851 14 14 15.898 14 18.484c0 2.614 1.883 4.512 4.636 4.512zm-2.721 10.729h2.721l13.481-19.436h-2.721L15.915 33.725zm2.721-12.985c-1.266 0-2.041-.88-2.041-2.256 0-1.348.744-2.228 1.946-2.228 1.187 0 2.01.908 2.01 2.256 0 1.293-.823 2.228-1.915 2.228zM29.491 34C32.084 34 34 32.06 34 29.53c0-2.573-1.946-4.512-4.604-4.512-2.69 0-4.542 1.884-4.542 4.484 0 2.613 1.883 4.498 4.637 4.498zm0-2.242c-1.266 0-2.042-.88-2.042-2.256 0-1.362.744-2.228 1.947-2.228 1.186 0 2.01.908 2.01 2.256 0 1.293-.824 2.228-1.915 2.228z" fill="#0B597A"></path>
		</symbol>
	
		<symbol id="ico-phone" viewBox="0 0 16 16">
			<path fill-rule="evenodd" clip-rule="evenodd" d="M13.568.5c-.514-.584-1.391-.657-1.83-.217l-2.126 2.13c-.512.512-.44 1.318.144 1.905l1.322 1.397c1.173 1.175.88 2.423-.073 3.376L9.07 11.03c-.953.954-2.2 1.248-3.373.073L4.392 9.775c-.587-.513-1.482-.653-1.923-.213L.344 11.69c-.514.513-.44 1.32.145 1.908l.807.881c3.08 2.423 6.38 1.762 8.8-.66l3.695-3.7c2.42-2.423 3.153-5.726.66-8.736L13.568.5z" fill="#222"></path>
		</symbol>
	
		<symbol id="ico-prev" viewBox="0 0 16 16">
			<path d="M5 8l-.707-.707L3.586 8l.707.707L5 8zm5.707 4.293l-5-5-1.414 1.414 5 5 1.414-1.414zm-5-3.586l5-5-1.414-1.414-5 5 1.414 1.414z" fill="#fff"></path>
		</symbol>
	
		<symbol id="ico-question" viewBox="0 0 22 22">
			<circle cx="11" cy="11" r="11" fill="#299191"></circle><path d="M10.323 11.94c0 .224.056.448.154.672h1.596c-.014-.112-.028-.21-.028-.294 0-.378.21-.56.98-1.232.826-.714 1.162-1.26 1.162-2.044 0-1.456-1.204-2.45-2.758-2.45-1.344 0-2.366.728-2.758 2.128l1.54.672c.266-.714.658-1.064 1.162-1.064.504 0 .882.35.882.854 0 .434-.196.658-.826 1.176-.742.602-1.106 1.064-1.106 1.582zm-.308 2.926c0 .742.574 1.302 1.316 1.302.742 0 1.302-.56 1.302-1.302 0-.728-.56-1.302-1.302-1.302s-1.316.574-1.316 1.302z" fill="#fff"></path>
		</symbol>
	
		<symbol id="ico-sanem-ligumu" viewBox="0 0 64 64">
			<path d="M28 42h18V20a1 1 0 0 0-1-1H17a1 1 0 0 0-1 1v21a1 1 0 0 0 1 1h4.5M46 42V26h5.28a1 1 0 0 1 .948.684l1.608 4.824a1 1 0 0 0 .661.641l2.79.837a1 1 0 0 1 .713.958V41a1 1 0 0 1-1 1h-2" stroke="#fff" stroke-width="2"></path><circle cx="51.5" cy="42.5" r="3.5" stroke="#fff" stroke-width="2"></circle><circle cx="24.5" cy="42.5" r="3.5" stroke="#fff" stroke-width="2"></circle><path d="M6 26h6M8 36h4M10 31h2" stroke="#fff" stroke-width="2" stroke-linecap="round"></path>
		</symbol>
	
		<symbol id="ico-sanem-naudu" viewBox="0 0 64 64">
			<path d="M14 27h-1 1zm31 4v22h2V31h-2zm0 22H17v2h28v-2zm0 0v2a2 2 0 0 0 2-2h-2zM13 27a4 4 0 0 0 4 4v-2a2 2 0 0 1-2-2h-2zm4-4a4 4 0 0 0-4 4h2a2 2 0 0 1 2-2v-2zm0 8h28v-2H17v2zm32-6v22h2V25h-2zm0 22h-3v2h3v-2zm-34 4V27h-2v24h2zm2-26h13.5v-2H17v2zm23.75 0H49v-2h-8.25v2zM51 25a2 2 0 0 0-2-2v2h2zm-2 22v2a2 2 0 0 0 2-2h-2zm-32 6a2 2 0 0 1-2-2h-2a4 4 0 0 0 4 4v-2zm30-22a2 2 0 0 0-2-2v2h2z" fill="#fff"></path><path d="M46 39h-5a3 3 0 1 0 0 6h5" stroke="#fff" stroke-width="2"></path><circle cx="36" cy="21" r="6" stroke="#fff" stroke-width="2"></circle><path d="M36 19v4" stroke="#fff" stroke-width="2" stroke-linecap="round"></path><circle cx="26" cy="14" r="6" stroke="#fff" stroke-width="2"></circle><path d="M26 12v4" stroke="#fff" stroke-width="2" stroke-linecap="round"></path>
		</symbol>
	
		<symbol id="ico-sanem-piedavajumu" viewBox="0 0 64 64">
			<path d="M14 29v18a1 1 0 0 0 1 1h34a1 1 0 0 0 1-1V29" stroke="#fff" stroke-width="2"></path><path d="M32 13l-.707-.707.707-.707.707.707L32 13zm7.293 8.707l-8-8 1.414-1.414 8 8-1.414 1.414zm-6.586-8l-8 8-1.414-1.414 8-8 1.414 1.414z" fill="#fff"></path><path d="M50 21H14v8l9.707 9.707a1 1 0 0 0 .707.293h15.172a1 1 0 0 0 .707-.293L50 29v-8z" stroke="#fff" stroke-width="2"></path><path fill="#fff" d="M24 27h2v2h-2z"></path><path d="M29 28h10M29 32h10" stroke="#fff" stroke-width="2" stroke-linecap="round"></path><path fill="#fff" d="M24 31h2v2h-2z"></path><path d="M49 47l-5-5M15 47l5-5" stroke="#fff" stroke-width="2" stroke-linecap="round"></path>
		</symbol>
	
		<symbol id="ico-time" viewBox="0 0 48 48">
			<circle opacity=".2" cx="24" cy="24" r="23.5" stroke="#0B597A"></circle><circle cx="24" cy="24" r="12" stroke="#0B597A" stroke-width="2"></circle><path d="M24 18v6l5 4" stroke="#0B597A" stroke-width="2" stroke-linecap="round"></path><rect x="12" y="23" width="3" height="2" rx="1" fill="#0B597A"></rect><rect x="33" y="23" width="3" height="2" rx="1" fill="#0B597A"></rect><rect x="23" y="33" width="2" height="3" rx="1" fill="#0B597A"></rect><rect x="23" y="12" width="2" height="3" rx="1" fill="#0B597A"></rect>
		</symbol>
	
		<symbol id="logo" viewBox="0 0 237 54">
			<path d="M72.772 32.327l4.71-1.195c.335 3.287 2.671 4.744 5.475 4.744 2.82 0 4.352-1.494 4.352-3.363 0-5.472-12.78-3.643-12.78-12.23 0-4.667 3.791-7.283 8.238-7.283 3.251 0 6.222 1.42 8.034 4.63l-3.944 2.409c-.915-1.793-2.486-2.82-4.261-2.82-1.87 0-3.325 1.14-3.325 2.82 0 4.97 12.78 3.286 12.78 12.044 0 4.984-4.13 7.994-9.175 7.994-4.669.003-9.265-2.558-10.104-7.75zM94.092 30.517c0-4.857 2.84-9.786 9.156-9.786 6.539 0 8.65 5.246 8.65 9.41 0 .766-.073 1.53-.168 1.793H98.914c.394 2.445 1.739 4.091 4.669 4.091 1.681 0 3.175-.52 4.484-1.978l3.138 2.747c-2.037 2.259-4.52 3.363-7.662 3.363-6.426-.004-9.451-4.616-9.451-9.64zm13.319-1.866a4.04 4.04 0 0 0-.15-1.176c-.466-1.924-2.074-2.915-4.053-2.915-2.69 0-3.867 1.756-4.297 4.088h8.5v.003zM116.789 24.935h-3.419v-3.81h3.456v-2.503c0-3.622 2.821-5.622 5.959-5.622 1.232 0 2.373.317 3.383.765l-1.494 3.753c-.431-.263-.974-.467-1.458-.467-.915 0-1.721.58-1.721 2.037v2.036h4.352v3.811h-4.348v14.846h-4.71V24.935zM128.672 13.394h4.782v4.2h-4.782v-4.2zm.113 7.73h4.56v18.658h-4.56V21.125zM138.783 21.124h4.56v2.168c1.495-1.829 3.641-2.557 5.475-2.557 4.895 0 6.82 3.942 6.82 7.843v11.207h-4.56V29.158c0-2.445-1.232-4.22-3.569-4.22-2.558 0-4.166 1.382-4.166 4.631v10.216h-4.56v-18.66zM175.478 28.462v11.316h-3.755l-.281-2.485c-1.213 1.924-3.699 2.856-5.828 2.856-3.831 0-6.783-2.204-6.783-6.106 0-4.051 3.251-5.395 7.436-5.395h5.063c-.095-2.765-.915-3.942-3.886-3.942-2.147 0-3.587 1.268-4.392 2.634l-3.496-2.521c1.794-2.449 4.166-4.092 7.848-4.092 5.085.004 8.074 3.18 8.074 7.735zm-4.13 3.625v-.15h-4.823c-2.074 0-3.025 1.083-3.025 2.26 0 1.23.991 2.109 3.025 2.109 2.803 0 4.542-2.015 4.823-4.22zM180.333 21.124h4.56v2.168c1.494-1.829 3.641-2.557 5.474-2.557 4.896 0 6.82 3.942 6.82 7.843v11.207h-4.56V29.158c0-2.445-1.232-4.22-3.568-4.22-2.559 0-4.166 1.382-4.166 4.631v10.216h-4.56v-18.66zM200.42 30.48c0-4.893 2.916-9.75 9.007-9.75 3.7 0 6.652 1.793 8.07 5.51l-4.334 1.68c-.485-1.793-1.87-3.065-3.736-3.065-3.138 0-4.37 2.838-4.37 5.622 0 2.838 1.195 5.545 4.37 5.545 1.83 0 3.251-1.214 3.736-2.97l4.148 1.567c-1.232 3.472-4.148 5.527-7.848 5.527-6.09.007-9.043-4.718-9.043-9.666zM218.991 30.517c0-4.857 2.84-9.786 9.157-9.786 6.539 0 8.649 5.246 8.649 9.41 0 .766-.073 1.53-.167 1.793h-12.816c.393 2.445 1.738 4.091 4.669 4.091 1.68 0 3.175-.52 4.483-1.978l3.139 2.747c-2.038 2.259-4.52 3.363-7.662 3.363-6.426-.004-9.452-4.616-9.452-9.64zm13.323-1.866a4.04 4.04 0 0 0-.15-1.176c-.466-1.924-2.074-2.915-4.053-2.915-2.69 0-3.867 1.756-4.297 4.088h8.5v.003z" fill="#fff"></path><path d="M54.522 26.315a27.078 27.078 0 0 0-.492-4.314 79.765 79.765 0 0 0-17.361-6.605c-7.443-1.872-15.21-2.685-23.091-2.412a86.624 86.624 0 0 0-10.225.959 27.311 27.311 0 0 0-1.818 3.93 82.548 82.548 0 0 1 12.163-1.325c7.545-.26 14.98.517 22.1 2.306 6.524 1.636 12.794 4.142 18.724 7.461z" fill="#8D3C66"></path><path d="M54.343 30.56c-7.159 1.675-14.346 2.218-21.443 1.603-7.155-.62-14.234-2.412-21.046-5.32A73.403 73.403 0 0 1 .642 20.85 27.08 27.08 0 0 0 0 24.68a77.376 77.376 0 0 0 10.315 5.38C17.49 33.14 24.95 35.037 32.5 35.7c2.034.179 4.071.27 6.116.27 4.986 0 9.998-.536 15-1.596.327-1.235.572-2.51.728-3.815z" fill="#E73E51"></path><path d="M21.47 54c9.487-11.844 14.48-25.237 17.043-34.764 1.699-6.32 2.559-11.684 2.993-15.247a26.744 26.744 0 0 0-3.394-1.767c-.35 3.327-1.17 9.134-3.04 16.089-2.555 9.498-7.607 22.974-17.324 34.61 1.199.445 2.445.806 3.721 1.079z" fill="#E73E51"></path><path d="M38.517 52.16c-3.38-17.597-10.44-30.17-16.097-37.904-3.437-4.7-6.71-8.154-9.174-10.463a28.112 28.112 0 0 0-3.01 2.076c2.368 2.164 5.744 5.625 9.301 10.49 5.5 7.519 12.382 19.807 15.59 37.08a27.383 27.383 0 0 0 3.39-1.279z" fill="#8D3C66"></path><path d="M50.662 13.243a27.574 27.574 0 0 0-2.406-3.395c-3.477.338-9.499 1.257-16.76 3.767C22.938 16.573 11.278 22.308.54 33.277c.303 1.345.7 2.653 1.192 3.913 10.585-11.367 22.297-17.203 30.79-20.158 8.813-3.068 15.83-3.672 18.14-3.789z" fill="#FF9E16"></path><path d="M12.747 50.466a27.343 27.343 0 0 0 3.466 1.833c.97-15.754-.303-27.74-1.648-35.347-1.006-5.694-2.172-9.735-2.963-12.1a27.568 27.568 0 0 0-2.989 2.405c1.91 6.256 5.31 20.905 4.134 43.21z" fill="#6CC04A"></path><path d="M50.071 42.258c-16.045 3.727-29.477 1.34-38.177-1.483a68.045 68.045 0 0 1-10.458-4.38 26.881 26.881 0 0 0 2.446 5.134 73.403 73.403 0 0 0 6.761 2.587A73.98 73.98 0 0 0 33.56 47.74c4.065 0 8.406-.332 12.973-1.126a27.538 27.538 0 0 0 3.54-4.357z" fill="#FF9E16"></path><path d="M50.115 42.192c-.9-9.06-3.404-17.203-7.487-24.27C38.528 10.82 32.842 4.793 25.738 0a27.353 27.353 0 0 0-5.392.827 57.877 57.877 0 0 1 3.08 1.905c6.831 4.54 12.266 10.274 16.159 17.04 4.348 7.56 6.783 16.467 7.257 26.512a27.079 27.079 0 0 0 3.273-4.092z" fill="#6CC04A"></path>
		</symbol>
	
		<symbol id="mail" viewBox="0 0 22 22">
			<circle opacity=".2" cx="11" cy="11" r="10.5" stroke="#0B597A"></circle><path d="M5.233 8.033c-.037.12-.056.247-.056.379v5.176c0 .116.015.229.044.335l2.41-2.41.915.915-2.41 2.41c.107.03.219.044.335.044h9.059c.116 0 .228-.015.335-.043l-2.41-2.41.915-.916 2.41 2.41c.029-.107.044-.219.044-.335V8.412c0-.132-.02-.259-.056-.379L11 13.16 5.233 8.033z" fill="#0B597A"></path><path d="M15.815 7.149a1.3 1.3 0 0 0-.285-.031H6.47c-.097 0-.192.01-.284.031L11 11.43l4.815-4.28z" fill="#0B597A"></path>
		</symbol>
	
		<symbol id="mobile-menu" viewBox="0 0 20 16">
			<path fill="#fff" d="M0 0h20v2H0zM0 7h20v2H0zM0 14h20v2H0z"></path>
		</symbol>
	
		<symbol id="phone" viewBox="0 0 22 22">
			<circle opacity=".2" cx="11" cy="11" r="10.5" stroke="#0B597A"></circle><path fill-rule="evenodd" clip-rule="evenodd" d="M14.603 6.147c-.333-.378-.9-.425-1.184-.14l-1.376 1.377c-.332.332-.285.853.093 1.233l.855.905c.76.76.57 1.567-.047 2.184l-1.253 1.255c-.616.617-1.423.807-2.182.047l-.844-.86c-.38-.332-.959-.422-1.244-.137l-1.375 1.377c-.333.332-.285.855.094 1.235l.522.57c1.993 1.568 4.128 1.14 5.693-.428l2.392-2.394c1.566-1.567 2.04-3.704.427-5.652l-.571-.572z" fill="#0B597A"></path>
		</symbol>
	
		<symbol id="quote" viewBox="0 0 20 20">
			<path d="M20 0v3.8c-.982.564-1.738 1.276-2.27 2.134-.511.837-.9 1.727-1.166 2.669-.265.92-.398 1.957-.398 3.108H20V20h-8.098v-5.15c0-3.097.286-5.452.859-7.063a13.68 13.68 0 0 1 2.638-4.49C16.585 1.937 18.119.837 20 0zM8.098 0v3.8c-.981.564-1.738 1.276-2.27 2.134-.511.837-.9 1.727-1.165 2.669-.266.92-.4 1.957-.4 3.108h3.835V20H0v-5.15c0-3.097.286-5.452.859-7.063a13.68 13.68 0 0 1 2.638-4.49C4.703 1.937 6.237.837 8.098 0z" fill="#E7EDF2"></path>
		</symbol>
	
		<symbol id="small-logo" viewBox="0 0 70 70">
			<path d="M70 33.785a34.762 34.762 0 0 0-.632-5.538 102.418 102.418 0 0 0-22.29-8.48c-9.556-2.404-19.528-3.447-29.646-3.097-4.871.169-9.284.636-13.127 1.23a35.056 35.056 0 0 0-2.335 5.048c4.32-.8 9.617-1.497 15.617-1.703 9.687-.332 19.233.664 28.373 2.96 8.377 2.1 16.426 5.32 24.04 9.58z" fill="#8D3C66"></path><path d="M69.77 39.235c-9.19 2.152-18.419 2.849-27.53 2.058-9.187-.795-18.275-3.096-27.021-6.829A94.236 94.236 0 0 1 .824 26.77 34.766 34.766 0 0 0 0 31.686a99.348 99.348 0 0 0 13.244 6.908c9.21 3.953 18.789 6.39 28.48 7.241 2.612.23 5.228.346 7.854.346 6.401 0 12.836-.687 19.257-2.048.42-1.586.734-3.223.936-4.898z" fill="#E73E51"></path><path d="M27.564 69.33c12.181-15.206 18.593-32.4 21.882-44.633 2.181-8.115 3.286-15 3.843-19.575a34.328 34.328 0 0 0-4.357-2.268c-.45 4.27-1.503 11.726-3.903 20.655-3.28 12.195-9.767 29.497-22.243 44.437 1.54.57 3.14 1.033 4.778 1.384z" fill="#E73E51"></path><path d="M49.451 66.968c-4.338-22.593-13.403-38.735-20.666-48.665-4.413-6.034-8.615-10.468-11.779-13.434a36.102 36.102 0 0 0-3.865 2.666c3.042 2.779 7.375 7.222 11.943 13.467 7.061 9.654 15.897 25.431 20.015 47.607a35.181 35.181 0 0 0 4.352-1.641z" fill="#8D3C66"></path><path d="M65.044 17.003a35.395 35.395 0 0 0-3.088-4.36c-4.465.435-12.196 1.614-21.518 4.837C29.45 21.278 14.479 28.64.693 42.724a34.851 34.851 0 0 0 1.53 5.024c13.59-14.594 28.626-22.087 39.53-25.88 11.316-3.94 20.324-4.716 23.291-4.865z" fill="#FF9E16"></path><path d="M16.365 64.793a35.082 35.082 0 0 0 4.45 2.352c1.245-20.225-.388-35.614-2.115-45.38-1.291-7.312-2.789-12.5-3.804-15.535a35.39 35.39 0 0 0-3.838 3.087c2.453 8.032 6.819 26.84 5.307 55.476z" fill="#6CC04A"></path><path d="M64.286 54.255c-20.6 4.785-37.845 1.721-49.016-1.904A87.362 87.362 0 0 1 1.844 46.73a34.512 34.512 0 0 0 3.14 6.59 94.296 94.296 0 0 0 8.681 3.321 94.986 94.986 0 0 0 29.422 4.654c5.218 0 10.791-.425 16.655-1.445a35.349 35.349 0 0 0 4.544-5.594z" fill="#FF9E16"></path><path d="M64.342 54.17c-1.156-11.633-4.37-22.087-9.612-31.161C49.465 13.892 42.165 6.156 33.044 0a35.118 35.118 0 0 0-6.922 1.062 74.29 74.29 0 0 1 3.955 2.446c8.77 5.828 15.747 13.19 20.745 21.877 5.583 9.706 8.71 21.142 9.318 34.038a34.782 34.782 0 0 0 4.202-5.253z" fill="#6CC04A"></path>
		</symbol>
	
</svg>
