<svg width="60" height="60" viewBox="0 0 60 60" fill="none" xmlns="http://www.w3.org/2000/svg">
<circle cx="30" cy="30" r="30" fill="#2AD2C9"/>
<path d="M28 38L27.2929 38.7071L28 39.4142L28.7071 38.7071L28 38ZM42.2929 22.2929L27.2929 37.2929L28.7071 38.7071L43.7071 23.7071L42.2929 22.2929ZM28.7071 37.2929L19.7071 28.2929L18.2929 29.7071L27.2929 38.7071L28.7071 37.2929Z" fill="white"/>
</svg>
