<svg width="22" height="22" viewBox="0 0 22 22" fill="none" xmlns="http://www.w3.org/2000/svg">
<circle cx="11" cy="11" r="11" fill="#2AD2C9"/>
<path d="M10.3158 14L9.64547 14.7421L10.3402 15.3696L11.0121 14.7177L10.3158 14ZM15.8037 7.28228L9.61945 13.2823L11.0121 14.7177L17.1963 8.71772L15.8037 7.28228ZM10.9861 13.2579L7.17032 9.81112L5.82968 11.2953L9.64547 14.7421L10.9861 13.2579Z" fill="#F6F9FA"/>
</svg>
