<svg width="48" height="48" viewBox="0 0 48 48" fill="none" xmlns="http://www.w3.org/2000/svg">
<circle opacity="0.2" cx="24" cy="24" r="23.5" stroke="#0B597A"/>
<rect x="13" y="15" width="22" height="18" rx="1" stroke="#0B597A" stroke-width="2"/>
<rect x="13" y="27" width="22" height="2" fill="#0B597A"/>
<rect x="17" y="19" width="4" height="3" rx="1" fill="#0B597A"/>
</svg>
