<svg width="16" height="16" viewBox="0 0 16 16" fill="none" xmlns="http://www.w3.org/2000/svg">
<path d="M5 8L4.29289 7.29289L3.58579 8L4.29289 8.70711L5 8ZM10.7071 12.2929L5.70711 7.29289L4.29289 8.70711L9.29289 13.7071L10.7071 12.2929ZM5.70711 8.70711L10.7071 3.70711L9.29289 2.29289L4.29289 7.29289L5.70711 8.70711Z" fill="white"/>
</svg>
