<svg width="70" height="70" viewBox="0 0 70 70" fill="none" xmlns="http://www.w3.org/2000/svg">
<path d="M70 33.7853C69.9345 31.8956 69.7239 30.0479 69.3682 28.2471C62.2597 24.5519 54.8001 21.708 47.0785 19.7668C37.5224 17.3626 27.5498 16.3195 17.4322 16.6703C12.5605 16.8387 8.14751 17.3064 4.30542 17.9005C3.40223 19.5095 2.61602 21.1934 1.97021 22.9475C6.28964 22.1476 11.5871 21.4507 17.5866 21.2449C27.2737 20.9128 36.8204 21.9091 45.96 24.2057C54.3368 26.3059 62.386 29.5241 70 33.7853Z" fill="#8D3C66"/>
<path d="M69.7707 39.2353C60.5796 41.387 51.3511 42.0839 42.2396 41.2934C33.0532 40.4982 23.9651 38.1969 15.2186 34.4643C9.47185 32.0086 4.62361 29.2489 0.823644 26.7698C0.435223 28.3695 0.159112 30.0113 0 31.6858C3.6549 33.9591 8.09132 36.382 13.2437 38.5945C22.4535 42.547 32.033 44.984 41.7248 45.8353C44.3361 46.0645 46.9521 46.1814 49.5775 46.1814C55.9794 46.1814 62.4141 45.4938 68.8347 44.1327C69.2559 42.547 69.5694 40.9099 69.7707 39.2353Z" fill="#E73E51"/>
<path d="M27.5638 69.3302C39.7453 54.1236 46.1565 36.9291 49.4464 24.6974C51.6272 16.582 52.7316 9.6967 53.2885 5.1221C51.8986 4.26612 50.4432 3.50837 48.9316 2.85352C48.4824 7.12407 47.4294 14.58 45.0287 23.5094C41.7482 35.7036 35.262 53.0057 22.7858 67.9456C24.3254 68.5163 25.9259 68.9793 27.5638 69.3302Z" fill="#E73E51"/>
<path d="M49.4511 66.9677C45.1129 44.3753 36.0482 28.2333 28.7852 18.3029C24.3722 12.2689 20.1698 7.83468 17.0062 4.86914C15.6585 5.67367 14.3668 6.56707 13.1407 7.53532C16.1826 10.3138 20.5161 14.7574 25.0835 21.0018C32.1453 30.6562 40.9807 46.4334 45.0989 68.6095C46.6011 68.1557 48.0471 67.6038 49.4511 66.9677Z" fill="#8D3C66"/>
<path d="M65.0441 17.0025C64.1222 15.4683 63.088 14.0089 61.9555 12.6431C57.491 13.0781 49.76 14.2568 40.4379 17.4796C29.4498 21.2777 14.4792 28.6401 0.692627 42.7241C1.08105 44.4501 1.59114 46.1293 2.22291 47.7477C15.813 33.1539 30.8491 25.6606 41.7529 21.8671C53.0686 17.9286 62.0771 17.1522 65.0441 17.0025Z" fill="#FF9E16"/>
<path d="M16.3652 64.7925C17.7832 65.6766 19.2713 66.4671 20.8157 67.1453C22.0605 46.9198 20.4272 31.5308 18.7004 21.7642C17.4088 14.4533 15.9113 9.26592 14.8958 6.23022C13.5433 7.1704 12.261 8.20413 11.0583 9.31738C13.5105 17.3486 17.8768 36.1569 16.3652 64.7925Z" fill="#6CC04A"/>
<path d="M64.286 54.2549C43.6857 59.0399 26.4407 55.9762 15.2701 52.3511C9.82756 50.583 5.29754 48.5343 1.84387 46.7288C2.66283 49.0488 3.71578 51.2566 4.984 53.3194C7.55319 54.4513 10.45 55.5879 13.665 56.6404C21.1432 59.082 31.1907 61.2945 43.0867 61.2945C48.3046 61.2945 53.8782 60.8688 59.742 59.8491C61.4407 58.1512 62.9616 56.2709 64.286 54.2549Z" fill="#FF9E16"/>
<path d="M64.3421 54.1702C63.1862 42.5372 59.9712 32.083 54.7299 23.0086C49.4651 13.8922 42.1647 6.15559 33.0438 0C30.6665 0.126293 28.35 0.486462 26.1224 1.06179C27.4375 1.81955 28.7571 2.63343 30.0768 3.50813C38.8467 9.33629 45.8243 16.6987 50.8223 25.3848C56.4052 35.0906 59.5313 46.5271 60.1397 59.423C61.7027 57.8186 63.1113 56.0552 64.3421 54.1702Z" fill="#6CC04A"/>
</svg>
